Time series analysis and forecast: Stock prices forecasting
…
After checking the models, we can forecast and compare that
predictions with the testing set. There are many metrics that are
printed for every model and time series.

fit%>%
  fabletools::forecast(h=30)  %>% fabletools::accuracy(ts_tsibble3)

## # A tibble: 30 × 11
##    .model .response .type        ME    RMSE     MAE    MPE  MAPE  MASE RMSSE
##    <chr>  <chr>     <chr>     <dbl>   <dbl>   <dbl>  <dbl> <dbl> <dbl> <dbl>
##  1 aicc   AAPL      Test   0.00506  0.0160  0.0133    99.3  99.3 0.709 0.613
##  2 aicc   AMZN      Test   0.00544  0.0224  0.0190    99.1  99.1 0.913 0.770
##  3 aicc   BRK       Test  -0.00130  0.00926 0.00773  101.  101.  0.603 0.500
##  4 aicc   GOOGL     Test   0.00359  0.0194  0.0164   100.  100.  0.944 0.803
##  5 aicc   JNJ       Test  -0.00720  0.0154  0.0107  -Inf   Inf   1.03  1.02 
##  6 aicc   JPM       Test   0.000650 0.0124  0.0103    97.4  97.4 0.574 0.480
##  7 aicc   MSFT      Test   0.00183  0.0176  0.0138    80.2 106.  0.817 0.742
##  8 aicc   PG        Test  -0.00352  0.0105  0.00796  207.  207.  0.744 0.672
##  9 aicc   TSLA      Test   0.0238   0.0614  0.0529    98.5  98.5 1.38  1.14 
## 10 aicc   V         Test   0.00294  0.0112  0.00724  100.  100.  0.441 0.485
## # … with 20 more rows, and 1 more variable: ACF1 <dbl>
…
  ############################
  calib_list[i] <- calibration_table %>% 
                    modeltime_accuracy(acc_by_id = TRUE) %>% 
                    table_modeltime_accuracy(.interactive = FALSE)

}

for (i in 1:length(training_vec)){
 
  print(calib_list[i]) 
}

## [[1]]
## # A tibble: 30 × 10
##    .model_id .model_desc .type Category   mae   mape  mase smape  rmse   rsq
##        <int> <chr>       <chr> <chr>    <dbl>  <dbl> <dbl> <dbl> <dbl> <dbl>
##  1         1 GLMNET      Test  AAPL      0.01  132.   0.93  132.  0.02  0.29
##  2         1 GLMNET      Test  AMZN      0.02  184.   0.79  147.  0.02  0.51
##  3         1 GLMNET      Test  BRK       0.01  294.   1.03  129.  0.01  0.29
##  4         1 GLMNET      Test  GOOGL     0.02  166.   0.83  145.  0.02  0.46
##  5         1 GLMNET      Test  JNJ       0.01  197.   1.04  153.  0.01  0.41
##  6         1 GLMNET      Test  JPM       0.01   82.2  1.12  128.  0.01  0.24
##  7         1 GLMNET      Test  MSFT      0.01  161.   0.93  156.  0.02  0.32
##  8         1 GLMNET      Test  PG        0.01  183.   0.98  155.  0.01  0.38
##  9         1 GLMNET      Test  TSLA      0.03 1615.   0.9   145.  0.03  0.34
## 10         1 GLMNET      Test  V         0.01  253.   1.09  143.  0.01  0.26
## # … with 20 more rows
## 
## [[1]]
## # A tibble: 30 × 10
##    .model_id .model_desc .type Category   mae  mape  mase smape  rmse   rsq
##        <int> <chr>       <chr> <chr>    <dbl> <dbl> <dbl> <dbl> <dbl> <dbl>
##  1         1 GLMNET      Test  AAPL      0.01 101.   0.89  134.  0.02  0.29
##  2         1 GLMNET      Test  AMZN      0.02 194.   0.75  158.  0.02  0.51
##  3         1 GLMNET      Test  BRK       0.01 140.   0.93  136.  0.01  0.29
##  4         1 GLMNET      Test  GOOGL     0.02 136.   0.77  152.  0.02  0.46
##  5         1 GLMNET      Test  JNJ       0.01 103.   0.81  135.  0.01  0.41
##  6         1 GLMNET      Test  JPM       0.01  87.0  1.17  143.  0.01  0.24
##  7         1 GLMNET      Test  MSFT      0.01 121.   0.87  144.  0.02  0.32
##  8         1 GLMNET      Test  PG        0.01 104.   0.79  115.  0.01  0.38
##  9         1 GLMNET      Test  TSLA      0.03 608.   0.92  154.  0.03  0.34
## 10         1 GLMNET      Test  V         0    104.   0.89  124.  0.01  0.26
## # … with 20 more rows
## 
## [[1]]
## # A tibble: 30 × 10
##    .model_id .model_desc .type Category   mae  mape  mase smape  rmse   rsq
##        <int> <chr>       <chr> <chr>    <dbl> <dbl> <dbl> <dbl> <dbl> <dbl>
##  1         1 GLMNET      Test  AAPL      0.01 107.   0.9   138.  0.02  0.29
##  2         1 GLMNET      Test  AMZN      0.02 187.   0.77  163.  0.02  0.51
##  3         1 GLMNET      Test  BRK       0.01 138.   0.93  150.  0.01  0.29
##  4         1 GLMNET      Test  GOOGL     0.02 111.   0.78  155.  0.02  0.46
##  5         1 GLMNET      Test  JNJ       0.01 122.   0.87  158.  0.01  0.41
##  6         1 GLMNET      Test  JPM       0.01  83.2  1.15  147.  0.01  0.24
##  7         1 GLMNET      Test  MSFT      0.01 132.   0.89  156.  0.02  0.32
##  8         1 GLMNET      Test  PG        0.01 114.   0.84  152.  0.01  0.38
##  9         1 GLMNET      Test  TSLA      0.03 788.   0.92  157.  0.03  0.34
## 10         1 GLMNET      Test  V         0.01 148.   0.95  143.  0.01  0.26
## # … with 20 more rows
## 
## [[1]]
## # A tibble: 30 × 10
##    .model_id .model_desc .type Category   mae   mape  mase smape  rmse   rsq
##        <int> <chr>       <chr> <chr>    <dbl>  <dbl> <dbl> <dbl> <dbl> <dbl>
##  1         1 GLMNET      Test  AAPL      0.01  121.   0.9   130.  0.02  0.29
##  2         1 GLMNET      Test  AMZN      0.02  197.   0.77  152.  0.02  0.51
##  3         1 GLMNET      Test  BRK       0.01  210.   0.96  137.  0.01  0.29
##  4         1 GLMNET      Test  GOOGL     0.02  125.   0.78  143.  0.02  0.46
##  5         1 GLMNET      Test  JNJ       0.01  156.   0.93  149.  0.01  0.41
##  6         1 GLMNET      Test  JPM       0.01   81.6  1.12  134.  0.01  0.24
##  7         1 GLMNET      Test  MSFT      0.01  151.   0.9   153.  0.02  0.32
##  8         1 GLMNET      Test  PG        0.01  144.   0.88  148.  0.01  0.38
##  9         1 GLMNET      Test  TSLA      0.03 1063.   0.91  154.  0.03  0.34
## 10         1 GLMNET      Test  V         0.01  200.   0.99  143.  0.01  0.26
## # … with 20 more rows
…
